{ "compressionlevel":0,
 "editorsettings":
    {
     "export":
        {
         "format":"json",
         "target":"world_file.json"
        }
    },
 "height":20,
 "infinite":false,
 "layers":[
        {
         "data":[5745, 5746, 5747, 5748, 5749, 5750, 5751, 5752, 5753, 5754, 5755, 5756, 5757, 5758, 5759, 5760, 5761, 5762, 5763, 5764, 5804, 5805, 5806, 5807, 5808, 5809, 5810, 5811, 5812, 5813, 5814, 5815, 5816, 5817, 5818, 5819, 5820, 5821, 5822, 5823, 5863, 5864, 5865, 5866, 5867, 5868, 5869, 5870, 5871, 5872, 5873, 5874, 5875, 5876, 5877, 5878, 5879, 5880, 5881, 5882, 5922, 5923, 5924, 5925, 5926, 5927, 5928, 5929, 5930, 5931, 5932, 5933, 5934, 5935, 5936, 5937, 5938, 5939, 5940, 5941, 5981, 5982, 5983, 5984, 5985, 5986, 5987, 5988, 5989, 5990, 5991, 5992, 5993, 5994, 5995, 5996, 5997, 5998, 5999, 6000, 6040, 6041, 6042, 6043, 6044, 6045, 6046, 6047, 6048, 6049, 6050, 6051, 6052, 6053, 6054, 6055, 6056, 6057, 6058, 6059, 6099, 6100, 6101, 6102, 6103, 6104, 6105, 6106, 6107, 6108, 6109, 6110, 6111, 6112, 6113, 6114, 6115, 6116, 6117, 6118, 6158, 6159, 6160, 6161, 6162, 6163, 6164, 6165, 6166, 6167, 6168, 6169, 6170, 6171, 6172, 6173, 6174, 6175, 6176, 6177, 6217, 6218, 6219, 6220, 6221, 6222, 6223, 6224, 6225, 6226, 593, 594, 595, 596, 597, 598, 599, 600, 601, 602, 6276, 6277, 6278, 6279, 6280, 6281, 6282, 6283, 6284, 6285, 657, 658, 659, 660, 661, 662, 663, 664, 665, 666, 6335, 6336, 6337, 6338, 6339, 6340, 6341, 6342, 6343, 6344, 721, 722, 723, 724, 725, 726, 727, 728, 729, 730, 6394, 6395, 6396, 6397, 6398, 6399, 6400, 6401, 6402, 6403, 785, 786, 787, 788, 789, 790, 791, 792, 793, 794, 6453, 6454, 6455, 6456, 6457, 6458, 6459, 6460, 6461, 6462, 849, 850, 851, 852, 853, 854, 855, 856, 857, 858, 6512, 6513, 6514, 6515, 6516, 6517, 6518, 6519, 6520, 6521, 913, 914, 915, 916, 917, 918, 919, 920, 921, 922, 6571, 6572, 6573, 6574, 6575, 6576, 6577, 6578, 6579, 6580, 977, 978, 979, 980, 981, 982, 983, 984, 985, 986, 6630, 6631, 6632, 6633, 6634, 6635, 6636, 6637, 6638, 6639, 1041, 1042, 1043, 1044, 1045, 1046, 1047, 1048, 1049, 1050, 6689, 6690, 6691, 6692, 6693, 6694, 6695, 6696, 6697, 6698, 1105, 1106, 1107, 1108, 1109, 1110, 1111, 1112, 1113, 1114, 6748, 6749, 6750, 6751, 6752, 6753, 6754, 6755, 6756, 6757, 1169, 1170, 1171, 1172, 1173, 1174, 1175, 1176, 1177, 1178, 6807, 6808, 6809, 6810, 6811, 6812, 6813, 6814, 6815, 6816, 1233, 1234, 1235, 1236, 1237, 1238, 1239, 1240, 1241, 1242, 6866, 6867, 6868, 6869, 6870, 6871, 6872, 6873, 6874, 6875, 1297, 1298, 1299, 1300, 1301, 1302, 1303, 1304, 1305, 1306],
         "height":20,
         "id":1,
         "name":"Tile Layer 1",
         "opacity":1,
         "type":"tilelayer",
         "visible":true,
         "width":20,
         "x":0,
         "y":0
        }, 
        {
         "draworder":"topdown",
         "id":2,
         "name":"Object Layer 1",
         "objects":[
                {
                 "gid":1,
                 "height":60,
                 "id":3,
                 "name":"char",
                 "rotation":0,
                 "type":"player",
                 "visible":true,
                 "width":45,
                 "x":33,
                 "y":562
                }, 
                {
                 "gid":7390,
                 "height":60,
                 "id":4,
                 "name":"",
                 "rotation":0,
                 "type":"collision",
                 "visible":true,
                 "width":302,
                 "x":13,
                 "y":632
                }, 
                {
                 "gid":7390,
                 "height":56,
                 "id":5,
                 "name":"",
                 "rotation":0,
                 "type":"",
                 "visible":true,
                 "width":175,
                 "x":266,
                 "y":572
                }],
         "opacity":1,
         "type":"objectgroup",
         "visible":true,
         "x":0,
         "y":0
        }],
 "nextlayerid":3,
 "nextobjectid":6,
 "orientation":"orthogonal",
 "renderorder":"right-down",
 "tiledversion":"1.3.1",
 "tileheight":32,
 "tilesets":[
        {
         "firstgid":1,
         "source":"character_animation_idle.tsx"
        }, 
        {
         "firstgid":3,
         "source":"char_basic_design.tsx"
        }, 
        {
         "firstgid":5443,
         "source":"Destiny2.tsx"
        }, 
        {
         "firstgid":7390,
         "source":"fire_animation.tsx"
        }],
 "tilewidth":32,
 "type":"map",
 "version":1.2,
 "width":20
}